Unit 2 Project
…
#Question 3

new_penguin<-penguins_clean%>%select(species,island,sex, where(is.numeric))
ncol(new_penguin)

## [1] 8

#There are 8 columns in the dataframe

#Question 4

penguins_clean%>%select(matches("^bill|flipper.*_mm$"))

## # A tibble: 333 × 3
##    bill_length_mm bill_depth_mm flipper_length_mm
##             <dbl>         <dbl>             <int>
##  1           39.1          18.7               181
##  2           39.5          17.4               186
##  3           40.3          18                 195
##  4           36.7          19.3               193
##  5           39.3          20.6               190
##  6           38.9          17.8               181
##  7           39.2          19.6               195
##  8           41.1          17.6               182
##  9           38.6          21.2               191
## 10           34.6          21.1               198
## # ℹ 323 more rows
…
##Answer: This method just saves time as it selects the specific
columns from the dataset

#Question 6

penguins_clean%>%
  mutate(bill_length=case_when(bill_length_mm<40~"short", bill_length_mm<50~"medium",bill_length_mm>=50~"long"))%>%select(bill_length_mm,bill_length )

## # A tibble: 333 × 2
##    bill_length_mm bill_length
##             <dbl> <chr>      
##  1           39.1 short      
##  2           39.5 short      
##  3           40.3 medium     
##  4           36.7 short      
##  5           39.3 short      
##  6           38.9 short      
##  7           39.2 short      
##  8           41.1 medium     
##  9           38.6 short      
## 10           34.6 short      
## # ℹ 323 more rows
…
